…
    ## See spec(...) for full column specifications.

``` r
select(Transit_Data, entry) %>% 
mutate(entry = recode(entry, "YES" = TRUE, "NO" = FALSE))
```

    ## # A tibble: 1,868 x 1
    ##    entry
    ##    <lgl>
    ##  1 TRUE 
    ##  2 TRUE 
    ##  3 TRUE 
    ##  4 TRUE 
    ##  5 TRUE 
    ##  6 TRUE 
    ##  7 TRUE 
    ##  8 TRUE 
    ##  9 TRUE 
    ## 10 TRUE 
    ## # ... with 1,858 more rows
…
unique locations are included in the dataset.

``` r
nrow(distinct(brfss, locationabbr))
```

    ## [1] 51

states in US are represented.

``` r
count_(brfss, 'locationabbr', sort = TRUE)
```

    ## # A tibble: 51 x 2
    ##    locationabbr     n
    ##    <chr>        <int>
    ##  1 NJ             146
    ##  2 FL             122
    ##  3 NC             115
    ##  4 WA              97
    ##  5 MD              90
    ##  6 MA              79
    ##  7 TX              71
    ##  8 NY              65
    ##  9 SC              63
    ## 10 CO              59
    ## # ... with 41 more rows
…
